WAVELENGTH	MAT._REFRACTIVE_INDEX	MAT._ABSORPTION
300,00000	1,47244	0,00000	
300,37519	1,47231	0,00000	
300,75038	1,47217	0,00000	
301,12556	1,47203	0,00000	
301,50075	1,47189	0,00000	
301,87594	1,47176	0,00000	
302,25113	1,47162	0,00000	
302,62631	1,47149	0,00000	
303,00150	1,47135	0,00000	
303,37669	1,47122	0,00000	
303,75188	1,47108	0,00000	
304,12706	1,47095	0,00000	
304,50225	1,47082	0,00000	
304,87744	1,47068	0,00000	
305,25263	1,47055	0,00000	
305,62781	1,47042	0,00000	
306,00300	1,47029	0,00000	
306,37819	1,47016	0,00000	
306,75338	1,47003	0,00000	
307,12856	1,46990	0,00000	
307,50375	1,46977	0,00000	
307,87894	1,46964	0,00000	
308,25413	1,46951	0,00000	
308,62931	1,46939	0,00000	
309,00450	1,46926	0,00000	
309,37969	1,46913	0,00000	
309,75488	1,46901	0,00000	
310,13007	1,46888	0,00000	
310,50525	1,46876	0,00000	
310,88044	1,46863	0,00000	
311,25563	1,46851	0,00000	
311,63082	1,46838	0,00000	
312,00600	1,46826	0,00000	
312,38119	1,46814	0,00000	
312,75638	1,46801	0,00000	
313,13157	1,46789	0,00000	
313,50675	1,46777	0,00000	
313,88194	1,46765	0,00000	
314,25713	1,46753	0,00000	
314,63232	1,46741	0,00000	
315,00750	1,46729	0,00000	
315,38269	1,46717	0,00000	
315,75788	1,46705	0,00000	
316,13307	1,46693	0,00000	
316,50825	1,46681	0,00000	
316,88344	1,46669	0,00000	
317,25863	1,46658	0,00000	
317,63382	1,46646	0,00000	
318,00900	1,46634	0,00000	
318,38419	1,46623	0,00000	
318,75938	1,46611	0,00000	
319,13457	1,46600	0,00000	
319,50975	1,46588	0,00000	
319,88494	1,46577	0,00000	
320,26013	1,46565	0,00000	
320,63532	1,46554	0,00000	
321,01051	1,46542	0,00000	
321,38569	1,46531	0,00000	
321,76088	1,46520	0,00000	
322,13607	1,46509	0,00000	
322,51126	1,46497	0,00000	
322,88644	1,46486	0,00000	
323,26163	1,46475	0,00000	
323,63682	1,46464	0,00000	
324,01201	1,46453	0,00000	
324,38719	1,46442	0,00000	
324,76238	1,46431	0,00000	
325,13757	1,46420	0,00000	
325,51276	1,46409	0,00000	
325,88794	1,46399	0,00000	
326,26313	1,46388	0,00000	
326,63832	1,46377	0,00000	
327,01351	1,46366	0,00000	
327,38869	1,46356	0,00000	
327,76388	1,46345	0,00000	
328,13907	1,46334	0,00000	
328,51426	1,46324	0,00000	
328,88944	1,46313	0,00000	
329,26463	1,46303	0,00000	
329,63982	1,46292	0,00000	
330,01501	1,46282	0,00000	
330,39020	1,46271	0,00000	
330,76538	1,46261	0,00000	
331,14057	1,46251	0,00000	
331,51576	1,46240	0,00000	
331,89095	1,46230	0,00000	
332,26613	1,46220	0,00000	
332,64132	1,46210	0,00000	
333,01651	1,46200	0,00000	
333,39170	1,46189	0,00000	
333,76688	1,46179	0,00000	
334,14207	1,46169	0,00000	
334,51726	1,46159	0,00000	
334,89245	1,46149	0,00000	
335,26763	1,46139	0,00000	
335,64282	1,46129	0,00000	
336,01801	1,46120	0,00000	
336,39320	1,46110	0,00000	
336,76838	1,46100	0,00000	
337,14357	1,46090	0,00000	
337,51876	1,46080	0,00000	
337,89395	1,46071	0,00000	
338,26913	1,46061	0,00000	
338,64432	1,46051	0,00000	
339,01951	1,46042	0,00000	
339,39470	1,46032	0,00000	
339,76988	1,46022	0,00000	
340,14507	1,46013	0,00000	
340,52026	1,46003	0,00000	
340,89545	1,45994	0,00000	
341,27064	1,45985	0,00000	
341,64582	1,45975	0,00000	
342,02101	1,45966	0,00000	
342,39620	1,45956	0,00000	
342,77139	1,45947	0,00000	
343,14657	1,45938	0,00000	
343,52176	1,45929	0,00000	
343,89695	1,45919	0,00000	
344,27214	1,45910	0,00000	
344,64732	1,45901	0,00000	
345,02251	1,45892	0,00000	
345,39770	1,45883	0,00000	
345,77289	1,45874	0,00000	
346,14807	1,45865	0,00000	
346,52326	1,45856	0,00000	
346,89845	1,45847	0,00000	
347,27364	1,45838	0,00000	
347,64882	1,45829	0,00000	
348,02401	1,45820	0,00000	
348,39920	1,45811	0,00000	
348,77439	1,45802	0,00000	
349,14957	1,45793	0,00000	
349,52476	1,45785	0,00000	
349,89995	1,45776	0,00000	
350,27514	1,45767	0,00000	
350,65033	1,45758	0,00000	
351,02551	1,45750	0,00000	
351,40070	1,45741	0,00000	
351,77589	1,45732	0,00000	
352,15108	1,45724	0,00000	
352,52626	1,45715	0,00000	
352,90145	1,45707	0,00000	
353,27664	1,45698	0,00000	
353,65183	1,45690	0,00000	
354,02701	1,45681	0,00000	
354,40220	1,45673	0,00000	
354,77739	1,45665	0,00000	
355,15258	1,45656	0,00000	
355,52776	1,45648	0,00000	
355,90295	1,45639	0,00000	
356,27814	1,45631	0,00000	
356,65333	1,45623	0,00000	
357,02851	1,45615	0,00000	
357,40370	1,45606	0,00000	
357,77889	1,45598	0,00000	
358,15408	1,45590	0,00000	
358,52926	1,45582	0,00000	
358,90445	1,45574	0,00000	
359,27964	1,45566	0,00000	
359,65483	1,45558	0,00000	
360,03002	1,45550	0,00000	
360,40520	1,45542	0,00000	
360,78039	1,45534	0,00000	
361,15558	1,45526	0,00000	
361,53077	1,45518	0,00000	
361,90595	1,45510	0,00000	
362,28114	1,45502	0,00000	
362,65633	1,45494	0,00000	
363,03152	1,45486	0,00000	
363,40670	1,45478	0,00000	
363,78189	1,45471	0,00000	
364,15708	1,45463	0,00000	
364,53227	1,45455	0,00000	
364,90745	1,45447	0,00000	
365,28264	1,45440	0,00000	
365,65783	1,45432	0,00000	
366,03302	1,45424	0,00000	
366,40820	1,45417	0,00000	
366,78339	1,45409	0,00000	
367,15858	1,45402	0,00000	
367,53377	1,45394	0,00000	
367,90895	1,45387	0,00000	
368,28414	1,45379	0,00000	
368,65933	1,45372	0,00000	
369,03452	1,45364	0,00000	
369,40970	1,45357	0,00000	
369,78489	1,45349	0,00000	
370,16008	1,45342	0,00000	
370,53527	1,45334	0,00000	
370,91046	1,45327	0,00000	
371,28564	1,45320	0,00000	
371,66083	1,45312	0,00000	
372,03602	1,45305	0,00000	
372,41121	1,45298	0,00000	
372,78639	1,45291	0,00000	
373,16158	1,45283	0,00000	
373,53677	1,45276	0,00000	
373,91196	1,45269	0,00000	
374,28714	1,45262	0,00000	
374,66233	1,45255	0,00000	
375,03752	1,45248	0,00000	
375,41271	1,45241	0,00000	
375,78789	1,45234	0,00000	
376,16308	1,45227	0,00000	
376,53827	1,45220	0,00000	
376,91346	1,45213	0,00000	
377,28864	1,45206	0,00000	
377,66383	1,45199	0,00000	
378,03902	1,45192	0,00000	
378,41421	1,45185	0,00000	
378,78939	1,45178	0,00000	
379,16458	1,45171	0,00000	
379,53977	1,45164	0,00000	
379,91496	1,45157	0,00000	
380,29015	1,45150	0,00000	
380,66533	1,45144	0,00000	
381,04052	1,45137	0,00000	
381,41571	1,45130	0,00000	
381,79090	1,45123	0,00000	
382,16608	1,45117	0,00000	
382,54127	1,45110	0,00000	
382,91646	1,45103	0,00000	
383,29165	1,45097	0,00000	
383,66683	1,45090	0,00000	
384,04202	1,45083	0,00000	
384,41721	1,45077	0,00000	
384,79240	1,45070	0,00000	
385,16758	1,45064	0,00000	
385,54277	1,45057	0,00000	
385,91796	1,45051	0,00000	
386,29315	1,45044	0,00000	
386,66833	1,45038	0,00000	
387,04352	1,45031	0,00000	
387,41871	1,45025	0,00000	
387,79390	1,45018	0,00000	
388,16908	1,45012	0,00000	
388,54427	1,45005	0,00000	
388,91946	1,44999	0,00000	
389,29465	1,44993	0,00000	
389,66983	1,44986	0,00000	
390,04502	1,44980	0,00000	
390,42021	1,44974	0,00000	
390,79540	1,44967	0,00000	
391,17059	1,44961	0,00000	
391,54577	1,44955	0,00000	
391,92096	1,44949	0,00000	
392,29615	1,44942	0,00000	
392,67134	1,44936	0,00000	
393,04652	1,44930	0,00000	
393,42171	1,44924	0,00000	
393,79690	1,44918	0,00000	
394,17209	1,44912	0,00000	
394,54727	1,44906	0,00000	
394,92246	1,44899	0,00000	
395,29765	1,44893	0,00000	
395,67284	1,44887	0,00000	
396,04802	1,44881	0,00000	
396,42321	1,44875	0,00000	
396,79840	1,44869	0,00000	
397,17359	1,44863	0,00000	
397,54877	1,44857	0,00000	
397,92396	1,44851	0,00000	
398,29915	1,44845	0,00000	
398,67434	1,44840	0,00000	
399,04952	1,44834	0,00000	
399,42471	1,44828	0,00000	
399,79990	1,44822	0,00000	
400,17509	1,44816	0,00000	
400,55028	1,44810	0,00000	
400,92546	1,44804	0,00000	
401,30065	1,44799	0,00000	
401,67584	1,44793	0,00000	
402,05103	1,44787	0,00000	
402,42621	1,44781	0,00000	
402,80140	1,44776	0,00000	
403,17659	1,44770	0,00000	
403,55178	1,44764	0,00000	
403,92696	1,44758	0,00000	
404,30215	1,44753	0,00000	
404,67734	1,44747	0,00000	
405,05253	1,44741	0,00000	
405,42771	1,44736	0,00000	
405,80290	1,44730	0,00000	
406,17809	1,44725	0,00000	
406,55328	1,44719	0,00000	
406,92846	1,44713	0,00000	
407,30365	1,44708	0,00000	
407,67884	1,44702	0,00000	
408,05403	1,44697	0,00000	
408,42921	1,44691	0,00000	
408,80440	1,44686	0,00000	
409,17959	1,44680	0,00000	
409,55478	1,44675	0,00000	
409,92996	1,44669	0,00000	
410,30515	1,44664	0,00000	
410,68034	1,44659	0,00000	
411,05553	1,44653	0,00000	
411,43072	1,44648	0,00000	
411,80590	1,44642	0,00000	
412,18109	1,44637	0,00000	
412,55628	1,44632	0,00000	
412,93147	1,44626	0,00000	
413,30665	1,44621	0,00000	
413,68184	1,44616	0,00000	
414,05703	1,44611	0,00000	
414,43222	1,44605	0,00000	
414,80740	1,44600	0,00000	
415,18259	1,44595	0,00000	
415,55778	1,44590	0,00000	
415,93297	1,44584	0,00000	
416,30815	1,44579	0,00000	
416,68334	1,44574	0,00000	
417,05853	1,44569	0,00000	
417,43372	1,44564	0,00000	
417,80890	1,44559	0,00000	
418,18409	1,44553	0,00000	
418,55928	1,44548	0,00000	
418,93447	1,44543	0,00000	
419,30965	1,44538	0,00000	
419,68484	1,44533	0,00000	
420,06003	1,44528	0,00000	
420,43522	1,44523	0,00000	
420,81041	1,44518	0,00000	
421,18559	1,44513	0,00000	
421,56078	1,44508	0,00000	
421,93597	1,44503	0,00000	
422,31116	1,44498	0,00000	
422,68634	1,44493	0,00000	
423,06153	1,44488	0,00000	
423,43672	1,44483	0,00000	
423,81191	1,44478	0,00000	
424,18709	1,44473	0,00000	
424,56228	1,44468	0,00000	
424,93747	1,44463	0,00000	
425,31266	1,44459	0,00000	
425,68784	1,44454	0,00000	
426,06303	1,44449	0,00000	
426,43822	1,44444	0,00000	
426,81341	1,44439	0,00000	
427,18859	1,44434	0,00000	
427,56378	1,44430	0,00000	
427,93897	1,44425	0,00000	
428,31416	1,44420	0,00000	
428,68934	1,44415	0,00000	
429,06453	1,44411	0,00000	
429,43972	1,44406	0,00000	
429,81491	1,44401	0,00000	
430,19010	1,44396	0,00000	
430,56528	1,44392	0,00000	
430,94047	1,44387	0,00000	
431,31566	1,44382	0,00000	
431,69085	1,44378	0,00000	
432,06603	1,44373	0,00000	
432,44122	1,44368	0,00000	
432,81641	1,44364	0,00000	
433,19160	1,44359	0,00000	
433,56678	1,44355	0,00000	
433,94197	1,44350	0,00000	
434,31716	1,44345	0,00000	
434,69235	1,44341	0,00000	
435,06753	1,44336	0,00000	
435,44272	1,44332	0,00000	
435,81791	1,44327	0,00000	
436,19310	1,44323	0,00000	
436,56828	1,44318	0,00000	
436,94347	1,44314	0,00000	
437,31866	1,44309	0,00000	
437,69385	1,44305	0,00000	
438,06903	1,44300	0,00000	
438,44422	1,44296	0,00000	
438,81941	1,44291	0,00000	
439,19460	1,44287	0,00000	
439,56978	1,44283	0,00000	
439,94497	1,44278	0,00000	
440,32016	1,44274	0,00000	
440,69535	1,44269	0,00000	
441,07054	1,44265	0,00000	
441,44572	1,44261	0,00000	
441,82091	1,44256	0,00000	
442,19610	1,44252	0,00000	
442,57129	1,44248	0,00000	
442,94647	1,44243	0,00000	
443,32166	1,44239	0,00000	
443,69685	1,44235	0,00000	
444,07204	1,44230	0,00000	
444,44722	1,44226	0,00000	
444,82241	1,44222	0,00000	
445,19760	1,44218	0,00000	
445,57279	1,44213	0,00000	
445,94797	1,44209	0,00000	
446,32316	1,44205	0,00000	
446,69835	1,44201	0,00000	
447,07354	1,44197	0,00000	
447,44872	1,44192	0,00000	
447,82391	1,44188	0,00000	
448,19910	1,44184	0,00000	
448,57429	1,44180	0,00000	
448,94947	1,44176	0,00000	
449,32466	1,44172	0,00000	
449,69985	1,44167	0,00000	
450,07504	1,44163	0,00000	
450,45023	1,44159	0,00000	
450,82541	1,44155	0,00000	
451,20060	1,44151	0,00000	
451,57579	1,44147	0,00000	
451,95098	1,44143	0,00000	
452,32616	1,44139	0,00000	
452,70135	1,44135	0,00000	
453,07654	1,44131	0,00000	
453,45173	1,44127	0,00000	
453,82691	1,44123	0,00000	
454,20210	1,44119	0,00000	
454,57729	1,44115	0,00000	
454,95248	1,44111	0,00000	
455,32766	1,44107	0,00000	
455,70285	1,44103	0,00000	
456,07804	1,44099	0,00000	
456,45323	1,44095	0,00000	
456,82841	1,44091	0,00000	
457,20360	1,44087	0,00000	
457,57879	1,44083	0,00000	
457,95398	1,44079	0,00000	
458,32916	1,44075	0,00000	
458,70435	1,44072	0,00000	
459,07954	1,44068	0,00000	
459,45473	1,44064	0,00000	
459,82991	1,44060	0,00000	
460,20510	1,44056	0,00000	
460,58029	1,44052	0,00000	
460,95548	1,44048	0,00000	
461,33067	1,44045	0,00000	
461,70585	1,44041	0,00000	
462,08104	1,44037	0,00000	
462,45623	1,44033	0,00000	
462,83142	1,44029	0,00000	
463,20660	1,44026	0,00000	
463,58179	1,44022	0,00000	
463,95698	1,44018	0,00000	
464,33217	1,44014	0,00000	
464,70735	1,44011	0,00000	
465,08254	1,44007	0,00000	
465,45773	1,44003	0,00000	
465,83292	1,44000	0,00000	
466,20810	1,43996	0,00000	
466,58329	1,43992	0,00000	
466,95848	1,43988	0,00000	
467,33367	1,43985	0,00000	
467,70885	1,43981	0,00000	
468,08404	1,43977	0,00000	
468,45923	1,43974	0,00000	
468,83442	1,43970	0,00000	
469,20960	1,43967	0,00000	
469,58479	1,43963	0,00000	
469,95998	1,43959	0,00000	
470,33517	1,43956	0,00000	
470,71036	1,43952	0,00000	
471,08554	1,43949	0,00000	
471,46073	1,43945	0,00000	
471,83592	1,43941	0,00000	
472,21111	1,43938	0,00000	
472,58629	1,43934	0,00000	
472,96148	1,43931	0,00000	
473,33667	1,43927	0,00000	
473,71186	1,43924	0,00000	
474,08704	1,43920	0,00000	
474,46223	1,43917	0,00000	
474,83742	1,43913	0,00000	
475,21261	1,43910	0,00000	
475,58779	1,43906	0,00000	
475,96298	1,43903	0,00000	
476,33817	1,43899	0,00000	
476,71336	1,43896	0,00000	
477,08854	1,43892	0,00000	
477,46373	1,43889	0,00000	
477,83892	1,43885	0,00000	
478,21411	1,43882	0,00000	
478,58929	1,43879	0,00000	
478,96448	1,43875	0,00000	
479,33967	1,43872	0,00000	
479,71486	1,43868	0,00000	
480,09005	1,43865	0,00000	
480,46523	1,43862	0,00000	
480,84042	1,43858	0,00000	
481,21561	1,43855	0,00000	
481,59080	1,43852	0,00000	
481,96598	1,43848	0,00000	
482,34117	1,43845	0,00000	
482,71636	1,43841	0,00000	
483,09155	1,43838	0,00000	
483,46673	1,43835	0,00000	
483,84192	1,43832	0,00000	
484,21711	1,43828	0,00000	
484,59230	1,43825	0,00000	
484,96748	1,43822	0,00000	
485,34267	1,43818	0,00000	
485,71786	1,43815	0,00000	
486,09305	1,43812	0,00000	
486,46823	1,43809	0,00000	
486,84342	1,43805	0,00000	
487,21861	1,43802	0,00000	
487,59380	1,43799	0,00000	
487,96898	1,43796	0,00000	
488,34417	1,43792	0,00000	
488,71936	1,43789	0,00000	
489,09455	1,43786	0,00000	
489,46973	1,43783	0,00000	
489,84492	1,43780	0,00000	
490,22011	1,43776	0,00000	
490,59530	1,43773	0,00000	
490,97049	1,43770	0,00000	
491,34567	1,43767	0,00000	
491,72086	1,43764	0,00000	
492,09605	1,43761	0,00000	
492,47124	1,43757	0,00000	
492,84642	1,43754	0,00000	
493,22161	1,43751	0,00000	
493,59680	1,43748	0,00000	
493,97199	1,43745	0,00000	
494,34717	1,43742	0,00000	
494,72236	1,43739	0,00000	
495,09755	1,43736	0,00000	
495,47274	1,43733	0,00000	
495,84792	1,43730	0,00000	
496,22311	1,43726	0,00000	
496,59830	1,43723	0,00000	
496,97349	1,43720	0,00000	
497,34867	1,43717	0,00000	
497,72386	1,43714	0,00000	
498,09905	1,43711	0,00000	
498,47424	1,43708	0,00000	
498,84942	1,43705	0,00000	
499,22461	1,43702	0,00000	
499,59980	1,43699	0,00000	
499,97499	1,43696	0,00000	
500,35018	1,43693	0,00000	
500,72536	1,43690	0,00000	
501,10055	1,43687	0,00000	
501,47574	1,43684	0,00000	
501,85093	1,43681	0,00000	
502,22611	1,43678	0,00000	
502,60130	1,43675	0,00000	
502,97649	1,43672	0,00000	
503,35168	1,43670	0,00000	
503,72686	1,43667	0,00000	
504,10205	1,43664	0,00000	
504,47724	1,43661	0,00000	
504,85243	1,43658	0,00000	
505,22761	1,43655	0,00000	
505,60280	1,43652	0,00000	
505,97799	1,43649	0,00000	
506,35318	1,43646	0,00000	
506,72836	1,43643	0,00000	
507,10355	1,43640	0,00000	
507,47874	1,43638	0,00000	
507,85393	1,43635	0,00000	
508,22911	1,43632	0,00000	
508,60430	1,43629	0,00000	
508,97949	1,43626	0,00000	
509,35468	1,43623	0,00000	
509,72986	1,43621	0,00000	
510,10505	1,43618	0,00000	
510,48024	1,43615	0,00000	
510,85543	1,43612	0,00000	
511,23062	1,43609	0,00000	
511,60580	1,43606	0,00000	
511,98099	1,43604	0,00000	
512,35618	1,43601	0,00000	
512,73137	1,43598	0,00000	
513,10655	1,43595	0,00000	
513,48174	1,43593	0,00000	
513,85693	1,43590	0,00000	
514,23212	1,43587	0,00000	
514,60730	1,43584	0,00000	
514,98249	1,43582	0,00000	
515,35768	1,43579	0,00000	
515,73287	1,43576	0,00000	
516,10805	1,43573	0,00000	
516,48324	1,43571	0,00000	
516,85843	1,43568	0,00000	
517,23362	1,43565	0,00000	
517,60880	1,43563	0,00000	
517,98399	1,43560	0,00000	
518,35918	1,43557	0,00000	
518,73437	1,43554	0,00000	
519,10955	1,43552	0,00000	
519,48474	1,43549	0,00000	
519,85993	1,43546	0,00000	
520,23512	1,43544	0,00000	
520,61031	1,43541	0,00000	
520,98549	1,43538	0,00000	
521,36068	1,43536	0,00000	
521,73587	1,43533	0,00000	
522,11106	1,43531	0,00000	
522,48624	1,43528	0,00000	
522,86143	1,43525	0,00000	
523,23662	1,43523	0,00000	
523,61181	1,43520	0,00000	
523,98699	1,43517	0,00000	
524,36218	1,43515	0,00000	
524,73737	1,43512	0,00000	
525,11256	1,43510	0,00000	
525,48774	1,43507	0,00000	
525,86293	1,43504	0,00000	
526,23812	1,43502	0,00000	
526,61331	1,43499	0,00000	
526,98849	1,43497	0,00000	
527,36368	1,43494	0,00000	
527,73887	1,43492	0,00000	
528,11406	1,43489	0,00000	
528,48924	1,43487	0,00000	
528,86443	1,43484	0,00000	
529,23962	1,43482	0,00000	
529,61481	1,43479	0,00000	
529,98999	1,43476	0,00000	
530,36518	1,43474	0,00000	
530,74037	1,43471	0,00000	
531,11556	1,43469	0,00000	
531,49075	1,43466	0,00000	
531,86593	1,43464	0,00000	
532,24112	1,43462	0,00000	
532,61631	1,43459	0,00000	
532,99150	1,43457	0,00000	
533,36668	1,43454	0,00000	
533,74187	1,43452	0,00000	
534,11706	1,43449	0,00000	
534,49225	1,43447	0,00000	
534,86743	1,43444	0,00000	
535,24262	1,43442	0,00000	
535,61781	1,43439	0,00000	
535,99300	1,43437	0,00000	
536,36818	1,43435	0,00000	
536,74337	1,43432	0,00000	
537,11856	1,43430	0,00000	
537,49375	1,43427	0,00000	
537,86893	1,43425	0,00000	
538,24412	1,43422	0,00000	
538,61931	1,43420	0,00000	
538,99450	1,43418	0,00000	
539,36968	1,43415	0,00000	
539,74487	1,43413	0,00000	
540,12006	1,43410	0,00000	
540,49525	1,43408	0,00000	
540,87044	1,43406	0,00000	
541,24562	1,43403	0,00000	
541,62081	1,43401	0,00000	
541,99600	1,43399	0,00000	
542,37119	1,43396	0,00000	
542,74637	1,43394	0,00000	
543,12156	1,43392	0,00000	
543,49675	1,43389	0,00000	
543,87194	1,43387	0,00000	
544,24712	1,43385	0,00000	
544,62231	1,43382	0,00000	
544,99750	1,43380	0,00000	
545,37269	1,43378	0,00000	
545,74787	1,43375	0,00000	
546,12306	1,43373	0,00000	
546,49825	1,43371	0,00000	
546,87344	1,43369	0,00000	
547,24862	1,43366	0,00000	
547,62381	1,43364	0,00000	
547,99900	1,43362	0,00000	
548,37419	1,43359	0,00000	
548,74937	1,43357	0,00000	
549,12456	1,43355	0,00000	
549,49975	1,43353	0,00000	
549,87494	1,43350	0,00000	
550,25013	1,43348	0,00000	
550,62531	1,43346	0,00000	
551,00050	1,43344	0,00000	
551,37569	1,43341	0,00000	
551,75088	1,43339	0,00000	
552,12606	1,43337	0,00000	
552,50125	1,43335	0,00000	
552,87644	1,43332	0,00000	
553,25163	1,43330	0,00000	
553,62681	1,43328	0,00000	
554,00200	1,43326	0,00000	
554,37719	1,43324	0,00000	
554,75238	1,43321	0,00000	
555,12756	1,43319	0,00000	
555,50275	1,43317	0,00000	
555,87794	1,43315	0,00000	
556,25313	1,43313	0,00000	
556,62831	1,43311	0,00000	
557,00350	1,43308	0,00000	
557,37869	1,43306	0,00000	
557,75388	1,43304	0,00000	
558,12906	1,43302	0,00000	
558,50425	1,43300	0,00000	
558,87944	1,43298	0,00000	
559,25463	1,43295	0,00000	
559,62981	1,43293	0,00000	
560,00500	1,43291	0,00000	
560,38019	1,43289	0,00000	
560,75538	1,43287	0,00000	
561,13057	1,43285	0,00000	
561,50575	1,43283	0,00000	
561,88094	1,43281	0,00000	
562,25613	1,43278	0,00000	
562,63132	1,43276	0,00000	
563,00650	1,43274	0,00000	
563,38169	1,43272	0,00000	
563,75688	1,43270	0,00000	
564,13207	1,43268	0,00000	
564,50725	1,43266	0,00000	
564,88244	1,43264	0,00000	
565,25763	1,43262	0,00000	
565,63282	1,43260	0,00000	
566,00800	1,43258	0,00000	
566,38319	1,43256	0,00000	
566,75838	1,43253	0,00000	
567,13357	1,43251	0,00000	
567,50875	1,43249	0,00000	
567,88394	1,43247	0,00000	
568,25913	1,43245	0,00000	
568,63432	1,43243	0,00000	
569,00950	1,43241	0,00000	
569,38469	1,43239	0,00000	
569,75988	1,43237	0,00000	
570,13507	1,43235	0,00000	
570,51026	1,43233	0,00000	
570,88544	1,43231	0,00000	
571,26063	1,43229	0,00000	
571,63582	1,43227	0,00000	
572,01101	1,43225	0,00000	
572,38619	1,43223	0,00000	
572,76138	1,43221	0,00000	
573,13657	1,43219	0,00000	
573,51176	1,43217	0,00000	
573,88694	1,43215	0,00000	
574,26213	1,43213	0,00000	
574,63732	1,43211	0,00000	
575,01251	1,43209	0,00000	
575,38769	1,43207	0,00000	
575,76288	1,43205	0,00000	
576,13807	1,43203	0,00000	
576,51326	1,43201	0,00000	
576,88844	1,43199	0,00000	
577,26363	1,43197	0,00000	
577,63882	1,43196	0,00000	
578,01401	1,43194	0,00000	
578,38919	1,43192	0,00000	
578,76438	1,43190	0,00000	
579,13957	1,43188	0,00000	
579,51476	1,43186	0,00000	
579,88994	1,43184	0,00000	
580,26513	1,43182	0,00000	
580,64032	1,43180	0,00000	
581,01551	1,43178	0,00000	
581,39070	1,43176	0,00000	
581,76588	1,43174	0,00000	
582,14107	1,43172	0,00000	
582,51626	1,43171	0,00000	
582,89145	1,43169	0,00000	
583,26663	1,43167	0,00000	
583,64182	1,43165	0,00000	
584,01701	1,43163	0,00000	
584,39220	1,43161	0,00000	
584,76738	1,43159	0,00000	
585,14257	1,43157	0,00000	
585,51776	1,43156	0,00000	
585,89295	1,43154	0,00000	
586,26813	1,43152	0,00000	
586,64332	1,43150	0,00000	
587,01851	1,43148	0,00000	
587,39370	1,43146	0,00000	
587,76888	1,43144	0,00000	
588,14407	1,43143	0,00000	
588,51926	1,43141	0,00000	
588,89445	1,43139	0,00000	
589,26963	1,43137	0,00000	
589,64482	1,43135	0,00000	
590,02001	1,43133	0,00000	
590,39520	1,43132	0,00000	
590,77039	1,43130	0,00000	
591,14557	1,43128	0,00000	
591,52076	1,43126	0,00000	
591,89595	1,43124	0,00000	
592,27114	1,43123	0,00000	
592,64632	1,43121	0,00000	
593,02151	1,43119	0,00000	
593,39670	1,43117	0,00000	
593,77189	1,43115	0,00000	
594,14707	1,43114	0,00000	
594,52226	1,43112	0,00000	
594,89745	1,43110	0,00000	
595,27264	1,43108	0,00000	
595,64782	1,43106	0,00000	
596,02301	1,43105	0,00000	
596,39820	1,43103	0,00000	
596,77339	1,43101	0,00000	
597,14857	1,43099	0,00000	
597,52376	1,43098	0,00000	
597,89895	1,43096	0,00000	
598,27414	1,43094	0,00000	
598,64932	1,43092	0,00000	
599,02451	1,43091	0,00000	
599,39970	1,43089	0,00000	
599,77489	1,43087	0,00000	
600,15008	1,43085	0,00000	
600,52526	1,43084	0,00000	
600,90045	1,43082	0,00000	
601,27564	1,43080	0,00000	
601,65083	1,43079	0,00000	
602,02601	1,43077	0,00000	
602,40120	1,43075	0,00000	
602,77639	1,43073	0,00000	
603,15158	1,43072	0,00000	
603,52676	1,43070	0,00000	
603,90195	1,43068	0,00000	
604,27714	1,43067	0,00000	
604,65233	1,43065	0,00000	
605,02751	1,43063	0,00000	
605,40270	1,43061	0,00000	
605,77789	1,43060	0,00000	
606,15308	1,43058	0,00000	
606,52826	1,43056	0,00000	
606,90345	1,43055	0,00000	
607,27864	1,43053	0,00000	
607,65383	1,43051	0,00000	
608,02901	1,43050	0,00000	
608,40420	1,43048	0,00000	
608,77939	1,43046	0,00000	
609,15458	1,43045	0,00000	
609,52976	1,43043	0,00000	
609,90495	1,43041	0,00000	
610,28014	1,43040	0,00000	
610,65533	1,43038	0,00000	
611,03052	1,43037	0,00000	
611,40570	1,43035	0,00000	
611,78089	1,43033	0,00000	
612,15608	1,43032	0,00000	
612,53127	1,43030	0,00000	
612,90645	1,43028	0,00000	
613,28164	1,43027	0,00000	
613,65683	1,43025	0,00000	
614,03202	1,43023	0,00000	
614,40720	1,43022	0,00000	
614,78239	1,43020	0,00000	
615,15758	1,43019	0,00000	
615,53277	1,43017	0,00000	
615,90795	1,43015	0,00000	
616,28314	1,43014	0,00000	
616,65833	1,43012	0,00000	
617,03352	1,43011	0,00000	
617,40870	1,43009	0,00000	
617,78389	1,43007	0,00000	
618,15908	1,43006	0,00000	
618,53427	1,43004	0,00000	
618,90945	1,43003	0,00000	
619,28464	1,43001	0,00000	
619,65983	1,43000	0,00000	
620,03502	1,42998	0,00000	
620,41021	1,42996	0,00000	
620,78539	1,42995	0,00000	
621,16058	1,42993	0,00000	
621,53577	1,42992	0,00000	
621,91096	1,42990	0,00000	
622,28614	1,42989	0,00000	
622,66133	1,42987	0,00000	
623,03652	1,42986	0,00000	
623,41171	1,42984	0,00000	
623,78689	1,42982	0,00000	
624,16208	1,42981	0,00000	
624,53727	1,42979	0,00000	
624,91246	1,42978	0,00000	
625,28764	1,42976	0,00000	
625,66283	1,42975	0,00000	
626,03802	1,42973	0,00000	
626,41321	1,42972	0,00000	
626,78839	1,42970	0,00000	
627,16358	1,42969	0,00000	
627,53877	1,42967	0,00000	
627,91396	1,42966	0,00000	
628,28914	1,42964	0,00000	
628,66433	1,42963	0,00000	
629,03952	1,42961	0,00000	
629,41471	1,42960	0,00000	
629,78989	1,42958	0,00000	
630,16508	1,42957	0,00000	
630,54027	1,42955	0,00000	
630,91546	1,42954	0,00000	
631,29065	1,42952	0,00000	
631,66583	1,42951	0,00000	
632,04102	1,42949	0,00000	
632,41621	1,42948	0,00000	
632,79140	1,42946	0,00000	
633,16658	1,42945	0,00000	
633,54177	1,42943	0,00000	
633,91696	1,42942	0,00000	
634,29215	1,42940	0,00000	
634,66733	1,42939	0,00000	
635,04252	1,42937	0,00000	
635,41771	1,42936	0,00000	
635,79290	1,42934	0,00000	
636,16808	1,42933	0,00000	
636,54327	1,42932	0,00000	
636,91846	1,42930	0,00000	
637,29365	1,42929	0,00000	
637,66883	1,42927	0,00000	
638,04402	1,42926	0,00000	
638,41921	1,42924	0,00000	
638,79440	1,42923	0,00000	
639,16958	1,42921	0,00000	
639,54477	1,42920	0,00000	
639,91996	1,42919	0,00000	
640,29515	1,42917	0,00000	
640,67034	1,42916	0,00000	
641,04552	1,42914	0,00000	
641,42071	1,42913	0,00000	
641,79590	1,42911	0,00000	
642,17109	1,42910	0,00000	
642,54627	1,42909	0,00000	
642,92146	1,42907	0,00000	
643,29665	1,42906	0,00000	
643,67184	1,42904	0,00000	
644,04702	1,42903	0,00000	
644,42221	1,42902	0,00000	
644,79740	1,42900	0,00000	
645,17259	1,42899	0,00000	
645,54777	1,42897	0,00000	
645,92296	1,42896	0,00000	
646,29815	1,42895	0,00000	
646,67334	1,42893	0,00000	
647,04852	1,42892	0,00000	
647,42371	1,42890	0,00000	
647,79890	1,42889	0,00000	
648,17409	1,42888	0,00000	
648,54927	1,42886	0,00000	
648,92446	1,42885	0,00000	
649,29965	1,42884	0,00000	
649,67484	1,42882	0,00000	
650,05003	1,42881	0,00000	
650,42521	1,42880	0,00000	
650,80040	1,42878	0,00000	
651,17559	1,42877	0,00000	
651,55078	1,42875	0,00000	
651,92596	1,42874	0,00000	
652,30115	1,42873	0,00000	
652,67634	1,42871	0,00000	
653,05153	1,42870	0,00000	
653,42671	1,42869	0,00000	
653,80190	1,42867	0,00000	
654,17709	1,42866	0,00000	
654,55228	1,42865	0,00000	
654,92746	1,42863	0,00000	
655,30265	1,42862	0,00000	
655,67784	1,42861	0,00000	
656,05303	1,42859	0,00000	
656,42821	1,42858	0,00000	
656,80340	1,42857	0,00000	
657,17859	1,42855	0,00000	
657,55378	1,42854	0,00000	
657,92896	1,42853	0,00000	
658,30415	1,42851	0,00000	
658,67934	1,42850	0,00000	
659,05453	1,42849	0,00000	
659,42971	1,42848	0,00000	
659,80490	1,42846	0,00000	
660,18009	1,42845	0,00000	
660,55528	1,42844	0,00000	
660,93047	1,42842	0,00000	
661,30565	1,42841	0,00000	
661,68084	1,42840	0,00000	
662,05603	1,42838	0,00000	
662,43122	1,42837	0,00000	
662,80640	1,42836	0,00000	
663,18159	1,42835	0,00000	
663,55678	1,42833	0,00000	
663,93197	1,42832	0,00000	
664,30715	1,42831	0,00000	
664,68234	1,42829	0,00000	
665,05753	1,42828	0,00000	
665,43272	1,42827	0,00000	
665,80790	1,42826	0,00000	
666,18309	1,42824	0,00000	
666,55828	1,42823	0,00000	
666,93347	1,42822	0,00000	
667,30865	1,42821	0,00000	
667,68384	1,42819	0,00000	
668,05903	1,42818	0,00000	
668,43422	1,42817	0,00000	
668,80940	1,42816	0,00000	
669,18459	1,42814	0,00000	
669,55978	1,42813	0,00000	
669,93497	1,42812	0,00000	
670,31016	1,42811	0,00000	
670,68534	1,42809	0,00000	
671,06053	1,42808	0,00000	
671,43572	1,42807	0,00000	
671,81091	1,42806	0,00000	
672,18609	1,42804	0,00000	
672,56128	1,42803	0,00000	
672,93647	1,42802	0,00000	
673,31166	1,42801	0,00000	
673,68684	1,42799	0,00000	
674,06203	1,42798	0,00000	
674,43722	1,42797	0,00000	
674,81241	1,42796	0,00000	
675,18759	1,42795	0,00000	
675,56278	1,42793	0,00000	
675,93797	1,42792	0,00000	
676,31316	1,42791	0,00000	
676,68834	1,42790	0,00000	
677,06353	1,42789	0,00000	
677,43872	1,42787	0,00000	
677,81391	1,42786	0,00000	
678,18909	1,42785	0,00000	
678,56428	1,42784	0,00000	
678,93947	1,42783	0,00000	
679,31466	1,42781	0,00000	
679,68984	1,42780	0,00000	
680,06503	1,42779	0,00000	
680,44022	1,42778	0,00000	
680,81541	1,42777	0,00000	
681,19060	1,42775	0,00000	
681,56578	1,42774	0,00000	
681,94097	1,42773	0,00000	
682,31616	1,42772	0,00000	
682,69135	1,42771	0,00000	
683,06653	1,42769	0,00000	
683,44172	1,42768	0,00000	
683,81691	1,42767	0,00000	
684,19210	1,42766	0,00000	
684,56728	1,42765	0,00000	
684,94247	1,42764	0,00000	
685,31766	1,42762	0,00000	
685,69285	1,42761	0,00000	
686,06803	1,42760	0,00000	
686,44322	1,42759	0,00000	
686,81841	1,42758	0,00000	
687,19360	1,42757	0,00000	
687,56878	1,42756	0,00000	
687,94397	1,42754	0,00000	
688,31916	1,42753	0,00000	
688,69435	1,42752	0,00000	
689,06953	1,42751	0,00000	
689,44472	1,42750	0,00000	
689,81991	1,42749	0,00000	
690,19510	1,42748	0,00000	
690,57029	1,42746	0,00000	
690,94547	1,42745	0,00000	
691,32066	1,42744	0,00000	
691,69585	1,42743	0,00000	
692,07104	1,42742	0,00000	
692,44622	1,42741	0,00000	
692,82141	1,42740	0,00000	
693,19660	1,42738	0,00000	
693,57179	1,42737	0,00000	
693,94697	1,42736	0,00000	
694,32216	1,42735	0,00000	
694,69735	1,42734	0,00000	
695,07254	1,42733	0,00000	
695,44772	1,42732	0,00000	
695,82291	1,42731	0,00000	
696,19810	1,42730	0,00000	
696,57329	1,42728	0,00000	
696,94847	1,42727	0,00000	
697,32366	1,42726	0,00000	
697,69885	1,42725	0,00000	
698,07404	1,42724	0,00000	
698,44922	1,42723	0,00000	
698,82441	1,42722	0,00000	
699,19960	1,42721	0,00000	
699,57479	1,42720	0,00000	
699,94997	1,42719	0,00000	
700,32516	1,42717	0,00000	
700,70035	1,42716	0,00000	
701,07554	1,42715	0,00000	
701,45073	1,42714	0,00000	
701,82591	1,42713	0,00000	
702,20110	1,42712	0,00000	
702,57629	1,42711	0,00000	
702,95148	1,42710	0,00000	
703,32666	1,42709	0,00000	
703,70185	1,42708	0,00000	
704,07704	1,42707	0,00000	
704,45223	1,42706	0,00000	
704,82741	1,42704	0,00000	
705,20260	1,42703	0,00000	
705,57779	1,42702	0,00000	
705,95298	1,42701	0,00000	
706,32816	1,42700	0,00000	
706,70335	1,42699	0,00000	
707,07854	1,42698	0,00000	
707,45373	1,42697	0,00000	
707,82891	1,42696	0,00000	
708,20410	1,42695	0,00000	
708,57929	1,42694	0,00000	
708,95448	1,42693	0,00000	
709,32966	1,42692	0,00000	
709,70485	1,42691	0,00000	
710,08004	1,42690	0,00000	
710,45523	1,42689	0,00000	
710,83042	1,42688	0,00000	
711,20560	1,42687	0,00000	
711,58079	1,42685	0,00000	
711,95598	1,42684	0,00000	
712,33117	1,42683	0,00000	
712,70635	1,42682	0,00000	
713,08154	1,42681	0,00000	
713,45673	1,42680	0,00000	
713,83192	1,42679	0,00000	
714,20710	1,42678	0,00000	
714,58229	1,42677	0,00000	
714,95748	1,42676	0,00000	
715,33267	1,42675	0,00000	
715,70785	1,42674	0,00000	
716,08304	1,42673	0,00000	
716,45823	1,42672	0,00000	
716,83342	1,42671	0,00000	
717,20860	1,42670	0,00000	
717,58379	1,42669	0,00000	
717,95898	1,42668	0,00000	
718,33417	1,42667	0,00000	
718,70935	1,42666	0,00000	
719,08454	1,42665	0,00000	
719,45973	1,42664	0,00000	
719,83492	1,42663	0,00000	
720,21011	1,42662	0,00000	
720,58529	1,42661	0,00000	
720,96048	1,42660	0,00000	
721,33567	1,42659	0,00000	
721,71086	1,42658	0,00000	
722,08604	1,42657	0,00000	
722,46123	1,42656	0,00000	
722,83642	1,42655	0,00000	
723,21161	1,42654	0,00000	
723,58679	1,42653	0,00000	
723,96198	1,42652	0,00000	
724,33717	1,42651	0,00000	
724,71236	1,42650	0,00000	
725,08754	1,42649	0,00000	
725,46273	1,42648	0,00000	
725,83792	1,42647	0,00000	
726,21311	1,42646	0,00000	
726,58829	1,42645	0,00000	
726,96348	1,42644	0,00000	
727,33867	1,42643	0,00000	
727,71386	1,42642	0,00000	
728,08904	1,42641	0,00000	
728,46423	1,42640	0,00000	
728,83942	1,42639	0,00000	
729,21461	1,42638	0,00000	
729,58979	1,42637	0,00000	
729,96498	1,42636	0,00000	
730,34017	1,42636	0,00000	
730,71536	1,42635	0,00000	
731,09055	1,42634	0,00000	
731,46573	1,42633	0,00000	
731,84092	1,42632	0,00000	
732,21611	1,42631	0,00000	
732,59130	1,42630	0,00000	
732,96648	1,42629	0,00000	
733,34167	1,42628	0,00000	
733,71686	1,42627	0,00000	
734,09205	1,42626	0,00000	
734,46723	1,42625	0,00000	
734,84242	1,42624	0,00000	
735,21761	1,42623	0,00000	
735,59280	1,42622	0,00000	
735,96798	1,42621	0,00000	
736,34317	1,42620	0,00000	
736,71836	1,42619	0,00000	
737,09355	1,42618	0,00000	
737,46873	1,42618	0,00000	
737,84392	1,42617	0,00000	
738,21911	1,42616	0,00000	
738,59430	1,42615	0,00000	
738,96948	1,42614	0,00000	
739,34467	1,42613	0,00000	
739,71986	1,42612	0,00000	
740,09505	1,42611	0,00000	
740,47024	1,42610	0,00000	
740,84542	1,42609	0,00000	
741,22061	1,42608	0,00000	
741,59580	1,42607	0,00000	
741,97099	1,42606	0,00000	
742,34617	1,42605	0,00000	
742,72136	1,42605	0,00000	
743,09655	1,42604	0,00000	
743,47174	1,42603	0,00000	
743,84692	1,42602	0,00000	
744,22211	1,42601	0,00000	
744,59730	1,42600	0,00000	
744,97249	1,42599	0,00000	
745,34767	1,42598	0,00000	
745,72286	1,42597	0,00000	
746,09805	1,42596	0,00000	
746,47324	1,42596	0,00000	
746,84842	1,42595	0,00000	
747,22361	1,42594	0,00000	
747,59880	1,42593	0,00000	
747,97399	1,42592	0,00000	
748,34917	1,42591	0,00000	
748,72436	1,42590	0,00000	
749,09955	1,42589	0,00000	
749,47474	1,42588	0,00000	
749,84992	1,42587	0,00000	
750,22511	1,42587	0,00000	
750,60030	1,42586	0,00000	
750,97549	1,42585	0,00000	
751,35068	1,42584	0,00000	
751,72586	1,42583	0,00000	
752,10105	1,42582	0,00000	
752,47624	1,42581	0,00000	
752,85143	1,42580	0,00000	
753,22661	1,42580	0,00000	
753,60180	1,42579	0,00000	
753,97699	1,42578	0,00000	
754,35218	1,42577	0,00000	
754,72736	1,42576	0,00000	
755,10255	1,42575	0,00000	
755,47774	1,42574	0,00000	
755,85293	1,42573	0,00000	
756,22811	1,42573	0,00000	
756,60330	1,42572	0,00000	
756,97849	1,42571	0,00000	
757,35368	1,42570	0,00000	
757,72886	1,42569	0,00000	
758,10405	1,42568	0,00000	
758,47924	1,42567	0,00000	
758,85443	1,42567	0,00000	
759,22961	1,42566	0,00000	
759,60480	1,42565	0,00000	
759,97999	1,42564	0,00000	
760,35518	1,42563	0,00000	
760,73037	1,42562	0,00000	
761,10555	1,42561	0,00000	
761,48074	1,42561	0,00000	
761,85593	1,42560	0,00000	
762,23112	1,42559	0,00000	
762,60630	1,42558	0,00000	
762,98149	1,42557	0,00000	
763,35668	1,42556	0,00000	
763,73187	1,42555	0,00000	
764,10705	1,42555	0,00000	
764,48224	1,42554	0,00000	
764,85743	1,42553	0,00000	
765,23262	1,42552	0,00000	
765,60780	1,42551	0,00000	
765,98299	1,42550	0,00000	
766,35818	1,42550	0,00000	
766,73337	1,42549	0,00000	
767,10855	1,42548	0,00000	
767,48374	1,42547	0,00000	
767,85893	1,42546	0,00000	
768,23412	1,42545	0,00000	
768,60930	1,42545	0,00000	
768,98449	1,42544	0,00000	
769,35968	1,42543	0,00000	
769,73487	1,42542	0,00000	
770,11006	1,42541	0,00000	
770,48524	1,42541	0,00000	
770,86043	1,42540	0,00000	
771,23562	1,42539	0,00000	
771,61081	1,42538	0,00000	
771,98599	1,42537	0,00000	
772,36118	1,42536	0,00000	
772,73637	1,42536	0,00000	
773,11156	1,42535	0,00000	
773,48674	1,42534	0,00000	
773,86193	1,42533	0,00000	
774,23712	1,42532	0,00000	
774,61231	1,42532	0,00000	
774,98749	1,42531	0,00000	
775,36268	1,42530	0,00000	
775,73787	1,42529	0,00000	
776,11306	1,42528	0,00000	
776,48824	1,42528	0,00000	
776,86343	1,42527	0,00000	
777,23862	1,42526	0,00000	
777,61381	1,42525	0,00000	
777,98899	1,42524	0,00000	
778,36418	1,42524	0,00000	
778,73937	1,42523	0,00000	
779,11456	1,42522	0,00000	
779,48974	1,42521	0,00000	
779,86493	1,42520	0,00000	
780,24012	1,42520	0,00000	
780,61531	1,42519	0,00000	
780,99050	1,42518	0,00000	
781,36568	1,42517	0,00000	
781,74087	1,42517	0,00000	
782,11606	1,42516	0,00000	
782,49125	1,42515	0,00000	
782,86643	1,42514	0,00000	
783,24162	1,42513	0,00000	
783,61681	1,42513	0,00000	
783,99200	1,42512	0,00000	
784,36718	1,42511	0,00000	
784,74237	1,42510	0,00000	
785,11756	1,42510	0,00000	
785,49275	1,42509	0,00000	
785,86793	1,42508	0,00000	
786,24312	1,42507	0,00000	
786,61831	1,42506	0,00000	
786,99350	1,42506	0,00000	
787,36868	1,42505	0,00000	
787,74387	1,42504	0,00000	
788,11906	1,42503	0,00000	
788,49425	1,42503	0,00000	
788,86943	1,42502	0,00000	
789,24462	1,42501	0,00000	
789,61981	1,42500	0,00000	
789,99500	1,42500	0,00000	
790,37019	1,42499	0,00000	
790,74537	1,42498	0,00000	
791,12056	1,42497	0,00000	
791,49575	1,42497	0,00000	
791,87094	1,42496	0,00000	
792,24612	1,42495	0,00000	
792,62131	1,42494	0,00000	
792,99650	1,42494	0,00000	
793,37169	1,42493	0,00000	
793,74687	1,42492	0,00000	
794,12206	1,42491	0,00000	
794,49725	1,42491	0,00000	
794,87244	1,42490	0,00000	
795,24762	1,42489	0,00000	
795,62281	1,42488	0,00000	
795,99800	1,42488	0,00000	
796,37319	1,42487	0,00000	
796,74837	1,42486	0,00000	
797,12356	1,42485	0,00000	
797,49875	1,42485	0,00000	
797,87394	1,42484	0,00000	
798,24912	1,42483	0,00000	
798,62431	1,42482	0,00000	
798,99950	1,42482	0,00000	
799,37469	1,42481	0,00000	
799,74987	1,42480	0,00000	
800,12506	1,42479	0,00000	
800,50025	1,42479	0,00000	
800,87544	1,42478	0,00000	
801,25063	1,42477	0,00000	
801,62581	1,42477	0,00000	
802,00100	1,42476	0,00000	
802,37619	1,42475	0,00000	
802,75138	1,42474	0,00000	
803,12656	1,42474	0,00000	
803,50175	1,42473	0,00000	
803,87694	1,42472	0,00000	
804,25213	1,42471	0,00000	
804,62731	1,42471	0,00000	
805,00250	1,42470	0,00000	
805,37769	1,42469	0,00000	
805,75288	1,42469	0,00000	
806,12806	1,42468	0,00000	
806,50325	1,42467	0,00000	
806,87844	1,42466	0,00000	
807,25363	1,42466	0,00000	
807,62881	1,42465	0,00000	
808,00400	1,42464	0,00000	
808,37919	1,42464	0,00000	
808,75438	1,42463	0,00000	
809,12956	1,42462	0,00000	
809,50475	1,42461	0,00000	
809,87994	1,42461	0,00000	
810,25513	1,42460	0,00000	
810,63032	1,42459	0,00000	
811,00550	1,42459	0,00000	
811,38069	1,42458	0,00000	
811,75588	1,42457	0,00000	
812,13107	1,42457	0,00000	
812,50625	1,42456	0,00000	
812,88144	1,42455	0,00000	
813,25663	1,42454	0,00000	
813,63182	1,42454	0,00000	
814,00700	1,42453	0,00000	
814,38219	1,42452	0,00000	
814,75738	1,42452	0,00000	
815,13257	1,42451	0,00000	
815,50775	1,42450	0,00000	
815,88294	1,42450	0,00000	
816,25813	1,42449	0,00000	
816,63332	1,42448	0,00000	
817,00850	1,42448	0,00000	
817,38369	1,42447	0,00000	
817,75888	1,42446	0,00000	
818,13407	1,42446	0,00000	
818,50925	1,42445	0,00000	
818,88444	1,42444	0,00000	
819,25963	1,42443	0,00000	
819,63482	1,42443	0,00000	
820,01001	1,42442	0,00000	
820,38519	1,42441	0,00000	
820,76038	1,42441	0,00000	
821,13557	1,42440	0,00000	
821,51076	1,42439	0,00000	
821,88594	1,42439	0,00000	
822,26113	1,42438	0,00000	
822,63632	1,42437	0,00000	
823,01151	1,42437	0,00000	
823,38669	1,42436	0,00000	
823,76188	1,42435	0,00000	
824,13707	1,42435	0,00000	
824,51226	1,42434	0,00000	
824,88744	1,42433	0,00000	
825,26263	1,42433	0,00000	
825,63782	1,42432	0,00000	
826,01301	1,42431	0,00000	
826,38819	1,42431	0,00000	
826,76338	1,42430	0,00000	
827,13857	1,42429	0,00000	
827,51376	1,42429	0,00000	
827,88894	1,42428	0,00000	
828,26413	1,42427	0,00000	
828,63932	1,42427	0,00000	
829,01451	1,42426	0,00000	
829,38969	1,42425	0,00000	
829,76488	1,42425	0,00000	
830,14007	1,42424	0,00000	
830,51526	1,42423	0,00000	
830,89045	1,42423	0,00000	
831,26563	1,42422	0,00000	
831,64082	1,42421	0,00000	
832,01601	1,42421	0,00000	
832,39120	1,42420	0,00000	
832,76638	1,42420	0,00000	
833,14157	1,42419	0,00000	
833,51676	1,42418	0,00000	
833,89195	1,42418	0,00000	
834,26713	1,42417	0,00000	
834,64232	1,42416	0,00000	
835,01751	1,42416	0,00000	
835,39270	1,42415	0,00000	
835,76788	1,42414	0,00000	
836,14307	1,42414	0,00000	
836,51826	1,42413	0,00000	
836,89345	1,42412	0,00000	
837,26863	1,42412	0,00000	
837,64382	1,42411	0,00000	
838,01901	1,42411	0,00000	
838,39420	1,42410	0,00000	
838,76938	1,42409	0,00000	
839,14457	1,42409	0,00000	
839,51976	1,42408	0,00000	
839,89495	1,42407	0,00000	
840,27014	1,42407	0,00000	
840,64532	1,42406	0,00000	
841,02051	1,42405	0,00000	
841,39570	1,42405	0,00000	
841,77089	1,42404	0,00000	
842,14607	1,42404	0,00000	
842,52126	1,42403	0,00000	
842,89645	1,42402	0,00000	
843,27164	1,42402	0,00000	
843,64682	1,42401	0,00000	
844,02201	1,42400	0,00000	
844,39720	1,42400	0,00000	
844,77239	1,42399	0,00000	
845,14757	1,42399	0,00000	
845,52276	1,42398	0,00000	
845,89795	1,42397	0,00000	
846,27314	1,42397	0,00000	
846,64832	1,42396	0,00000	
847,02351	1,42396	0,00000	
847,39870	1,42395	0,00000	
847,77389	1,42394	0,00000	
848,14907	1,42394	0,00000	
848,52426	1,42393	0,00000	
848,89945	1,42392	0,00000	
849,27464	1,42392	0,00000	
849,64982	1,42391	0,00000	
850,02501	1,42391	0,00000	
850,40020	1,42390	0,00000	
850,77539	1,42389	0,00000	
851,15058	1,42389	0,00000	
851,52576	1,42388	0,00000	
851,90095	1,42388	0,00000	
852,27614	1,42387	0,00000	
852,65133	1,42386	0,00000	
853,02651	1,42386	0,00000	
853,40170	1,42385	0,00000	
853,77689	1,42385	0,00000	
854,15208	1,42384	0,00000	
854,52726	1,42383	0,00000	
854,90245	1,42383	0,00000	
855,27764	1,42382	0,00000	
855,65283	1,42382	0,00000	
856,02801	1,42381	0,00000	
856,40320	1,42380	0,00000	
856,77839	1,42380	0,00000	
857,15358	1,42379	0,00000	
857,52876	1,42379	0,00000	
857,90395	1,42378	0,00000	
858,27914	1,42377	0,00000	
858,65433	1,42377	0,00000	
859,02951	1,42376	0,00000	
859,40470	1,42376	0,00000	
859,77989	1,42375	0,00000	
860,15508	1,42374	0,00000	
860,53027	1,42374	0,00000	
860,90545	1,42373	0,00000	
861,28064	1,42373	0,00000	
861,65583	1,42372	0,00000	
862,03102	1,42372	0,00000	
862,40620	1,42371	0,00000	
862,78139	1,42370	0,00000	
863,15658	1,42370	0,00000	
863,53177	1,42369	0,00000	
863,90695	1,42369	0,00000	
864,28214	1,42368	0,00000	
864,65733	1,42367	0,00000	
865,03252	1,42367	0,00000	
865,40770	1,42366	0,00000	
865,78289	1,42366	0,00000	
866,15808	1,42365	0,00000	
866,53327	1,42365	0,00000	
866,90845	1,42364	0,00000	
867,28364	1,42363	0,00000	
867,65883	1,42363	0,00000	
868,03402	1,42362	0,00000	
868,40920	1,42362	0,00000	
868,78439	1,42361	0,00000	
869,15958	1,42361	0,00000	
869,53477	1,42360	0,00000	
869,90995	1,42359	0,00000	
870,28514	1,42359	0,00000	
870,66033	1,42358	0,00000	
871,03552	1,42358	0,00000	
871,41071	1,42357	0,00000	
871,78589	1,42357	0,00000	
872,16108	1,42356	0,00000	
872,53627	1,42355	0,00000	
872,91146	1,42355	0,00000	
873,28664	1,42354	0,00000	
873,66183	1,42354	0,00000	
874,03702	1,42353	0,00000	
874,41221	1,42353	0,00000	
874,78739	1,42352	0,00000	
875,16258	1,42352	0,00000	
875,53777	1,42351	0,00000	
875,91296	1,42350	0,00000	
876,28814	1,42350	0,00000	
876,66333	1,42349	0,00000	
877,03852	1,42349	0,00000	
877,41371	1,42348	0,00000	
877,78889	1,42348	0,00000	
878,16408	1,42347	0,00000	
878,53927	1,42347	0,00000	
878,91446	1,42346	0,00000	
879,28964	1,42345	0,00000	
879,66483	1,42345	0,00000	
880,04002	1,42344	0,00000	
880,41521	1,42344	0,00000	
880,79040	1,42343	0,00000	
881,16558	1,42343	0,00000	
881,54077	1,42342	0,00000	
881,91596	1,42342	0,00000	
882,29115	1,42341	0,00000	
882,66633	1,42340	0,00000	
883,04152	1,42340	0,00000	
883,41671	1,42339	0,00000	
883,79190	1,42339	0,00000	
884,16708	1,42338	0,00000	
884,54227	1,42338	0,00000	
884,91746	1,42337	0,00000	
885,29265	1,42337	0,00000	
885,66783	1,42336	0,00000	
886,04302	1,42336	0,00000	
886,41821	1,42335	0,00000	
886,79340	1,42335	0,00000	
887,16858	1,42334	0,00000	
887,54377	1,42333	0,00000	
887,91896	1,42333	0,00000	
888,29415	1,42332	0,00000	
888,66933	1,42332	0,00000	
889,04452	1,42331	0,00000	
889,41971	1,42331	0,00000	
889,79490	1,42330	0,00000	
890,17009	1,42330	0,00000	
890,54527	1,42329	0,00000	
890,92046	1,42329	0,00000	
891,29565	1,42328	0,00000	
891,67084	1,42328	0,00000	
892,04602	1,42327	0,00000	
892,42121	1,42327	0,00000	
892,79640	1,42326	0,00000	
893,17159	1,42326	0,00000	
893,54677	1,42325	0,00000	
893,92196	1,42324	0,00000	
894,29715	1,42324	0,00000	
894,67234	1,42323	0,00000	
895,04752	1,42323	0,00000	
895,42271	1,42322	0,00000	
895,79790	1,42322	0,00000	
896,17309	1,42321	0,00000	
896,54827	1,42321	0,00000	
896,92346	1,42320	0,00000	
897,29865	1,42320	0,00000	
897,67384	1,42319	0,00000	
898,04902	1,42319	0,00000	
898,42421	1,42318	0,00000	
898,79940	1,42318	0,00000	
899,17459	1,42317	0,00000	
899,54977	1,42317	0,00000	
899,92496	1,42316	0,00000	
900,30015	1,42316	0,00000	
900,67534	1,42315	0,00000	
901,05053	1,42315	0,00000	
901,42571	1,42314	0,00000	
901,80090	1,42314	0,00000	
902,17609	1,42313	0,00000	
902,55128	1,42313	0,00000	
902,92646	1,42312	0,00000	
903,30165	1,42312	0,00000	
903,67684	1,42311	0,00000	
904,05203	1,42311	0,00000	
904,42721	1,42310	0,00000	
904,80240	1,42310	0,00000	
905,17759	1,42309	0,00000	
905,55278	1,42309	0,00000	
905,92796	1,42308	0,00000	
906,30315	1,42308	0,00000	
906,67834	1,42307	0,00000	
907,05353	1,42307	0,00000	
907,42871	1,42306	0,00000	
907,80390	1,42306	0,00000	
908,17909	1,42305	0,00000	
908,55428	1,42305	0,00000	
908,92946	1,42304	0,00000	
909,30465	1,42304	0,00000	
909,67984	1,42303	0,00000	
910,05503	1,42303	0,00000	
910,43022	1,42302	0,00000	
910,80540	1,42302	0,00000	
911,18059	1,42301	0,00000	
911,55578	1,42301	0,00000	
911,93097	1,42300	0,00000	
912,30615	1,42300	0,00000	
912,68134	1,42299	0,00000	
913,05653	1,42299	0,00000	
913,43172	1,42298	0,00000	
913,80690	1,42298	0,00000	
914,18209	1,42297	0,00000	
914,55728	1,42297	0,00000	
914,93247	1,42296	0,00000	
915,30765	1,42296	0,00000	
915,68284	1,42295	0,00000	
916,05803	1,42295	0,00000	
916,43322	1,42294	0,00000	
916,80840	1,42294	0,00000	
917,18359	1,42293	0,00000	
917,55878	1,42293	0,00000	
917,93397	1,42292	0,00000	
918,30915	1,42292	0,00000	
918,68434	1,42291	0,00000	
919,05953	1,42291	0,00000	
919,43472	1,42290	0,00000	
919,80990	1,42290	0,00000	
920,18509	1,42289	0,00000	
920,56028	1,42289	0,00000	
920,93547	1,42288	0,00000	
921,31066	1,42288	0,00000	
921,68584	1,42287	0,00000	
922,06103	1,42287	0,00000	
922,43622	1,42286	0,00000	
922,81141	1,42286	0,00000	
923,18659	1,42285	0,00000	
923,56178	1,42285	0,00000	
923,93697	1,42285	0,00000	
924,31216	1,42284	0,00000	
924,68734	1,42284	0,00000	
925,06253	1,42283	0,00000	
925,43772	1,42283	0,00000	
925,81291	1,42282	0,00000	
926,18809	1,42282	0,00000	
926,56328	1,42281	0,00000	
926,93847	1,42281	0,00000	
927,31366	1,42280	0,00000	
927,68884	1,42280	0,00000	
928,06403	1,42279	0,00000	
928,43922	1,42279	0,00000	
928,81441	1,42278	0,00000	
929,18959	1,42278	0,00000	
929,56478	1,42277	0,00000	
929,93997	1,42277	0,00000	
930,31516	1,42277	0,00000	
930,69035	1,42276	0,00000	
931,06553	1,42276	0,00000	
931,44072	1,42275	0,00000	
931,81591	1,42275	0,00000	
932,19110	1,42274	0,00000	
932,56628	1,42274	0,00000	
932,94147	1,42273	0,00000	
933,31666	1,42273	0,00000	
933,69185	1,42272	0,00000	
934,06703	1,42272	0,00000	
934,44222	1,42271	0,00000	
934,81741	1,42271	0,00000	
935,19260	1,42271	0,00000	
935,56778	1,42270	0,00000	
935,94297	1,42270	0,00000	
936,31816	1,42269	0,00000	
936,69335	1,42269	0,00000	
937,06853	1,42268	0,00000	
937,44372	1,42268	0,00000	
937,81891	1,42267	0,00000	
938,19410	1,42267	0,00000	
938,56928	1,42266	0,00000	
938,94447	1,42266	0,00000	
939,31966	1,42266	0,00000	
939,69485	1,42265	0,00000	
940,07004	1,42265	0,00000	
940,44522	1,42264	0,00000	
940,82041	1,42264	0,00000	
941,19560	1,42263	0,00000	
941,57079	1,42263	0,00000	
941,94597	1,42262	0,00000	
942,32116	1,42262	0,00000	
942,69635	1,42262	0,00000	
943,07154	1,42261	0,00000	
943,44672	1,42261	0,00000	
943,82191	1,42260	0,00000	
944,19710	1,42260	0,00000	
944,57229	1,42259	0,00000	
944,94747	1,42259	0,00000	
945,32266	1,42258	0,00000	
945,69785	1,42258	0,00000	
946,07304	1,42258	0,00000	
946,44822	1,42257	0,00000	
946,82341	1,42257	0,00000	
947,19860	1,42256	0,00000	
947,57379	1,42256	0,00000	
947,94897	1,42255	0,00000	
948,32416	1,42255	0,00000	
948,69935	1,42254	0,00000	
949,07454	1,42254	0,00000	
949,44972	1,42254	0,00000	
949,82491	1,42253	0,00000	
950,20010	1,42253	0,00000	
950,57529	1,42252	0,00000	
950,95048	1,42252	0,00000	
951,32566	1,42251	0,00000	
951,70085	1,42251	0,00000	
952,07604	1,42250	0,00000	
952,45123	1,42250	0,00000	
952,82641	1,42250	0,00000	
953,20160	1,42249	0,00000	
953,57679	1,42249	0,00000	
953,95198	1,42248	0,00000	
954,32716	1,42248	0,00000	
954,70235	1,42247	0,00000	
955,07754	1,42247	0,00000	
955,45273	1,42247	0,00000	
955,82791	1,42246	0,00000	
956,20310	1,42246	0,00000	
956,57829	1,42245	0,00000	
956,95348	1,42245	0,00000	
957,32866	1,42244	0,00000	
957,70385	1,42244	0,00000	
958,07904	1,42244	0,00000	
958,45423	1,42243	0,00000	
958,82941	1,42243	0,00000	
959,20460	1,42242	0,00000	
959,57979	1,42242	0,00000	
959,95498	1,42242	0,00000	
960,33017	1,42241	0,00000	
960,70535	1,42241	0,00000	
961,08054	1,42240	0,00000	
961,45573	1,42240	0,00000	
961,83092	1,42239	0,00000	
962,20610	1,42239	0,00000	
962,58129	1,42239	0,00000	
962,95648	1,42238	0,00000	
963,33167	1,42238	0,00000	
963,70685	1,42237	0,00000	
964,08204	1,42237	0,00000	
964,45723	1,42236	0,00000	
964,83242	1,42236	0,00000	
965,20760	1,42236	0,00000	
965,58279	1,42235	0,00000	
965,95798	1,42235	0,00000	
966,33317	1,42234	0,00000	
966,70835	1,42234	0,00000	
967,08354	1,42234	0,00000	
967,45873	1,42233	0,00000	
967,83392	1,42233	0,00000	
968,20910	1,42232	0,00000	
968,58429	1,42232	0,00000	
968,95948	1,42231	0,00000	
969,33467	1,42231	0,00000	
969,70985	1,42231	0,00000	
970,08504	1,42230	0,00000	
970,46023	1,42230	0,00000	
970,83542	1,42229	0,00000	
971,21061	1,42229	0,00000	
971,58579	1,42229	0,00000	
971,96098	1,42228	0,00000	
972,33617	1,42228	0,00000	
972,71136	1,42227	0,00000	
973,08654	1,42227	0,00000	
973,46173	1,42227	0,00000	
973,83692	1,42226	0,00000	
974,21211	1,42226	0,00000	
974,58729	1,42225	0,00000	
974,96248	1,42225	0,00000	
975,33767	1,42225	0,00000	
975,71286	1,42224	0,00000	
976,08804	1,42224	0,00000	
976,46323	1,42223	0,00000	
976,83842	1,42223	0,00000	
977,21361	1,42223	0,00000	
977,58879	1,42222	0,00000	
977,96398	1,42222	0,00000	
978,33917	1,42221	0,00000	
978,71436	1,42221	0,00000	
979,08954	1,42221	0,00000	
979,46473	1,42220	0,00000	
979,83992	1,42220	0,00000	
980,21511	1,42219	0,00000	
980,59030	1,42219	0,00000	
980,96548	1,42219	0,00000	
981,34067	1,42218	0,00000	
981,71586	1,42218	0,00000	
982,09105	1,42217	0,00000	
982,46623	1,42217	0,00000	
982,84142	1,42217	0,00000	
983,21661	1,42216	0,00000	
983,59180	1,42216	0,00000	
983,96698	1,42215	0,00000	
984,34217	1,42215	0,00000	
984,71736	1,42215	0,00000	
985,09255	1,42214	0,00000	
985,46773	1,42214	0,00000	
985,84292	1,42213	0,00000	
986,21811	1,42213	0,00000	
986,59330	1,42213	0,00000	
986,96848	1,42212	0,00000	
987,34367	1,42212	0,00000	
987,71886	1,42211	0,00000	
988,09405	1,42211	0,00000	
988,46923	1,42211	0,00000	
988,84442	1,42210	0,00000	
989,21961	1,42210	0,00000	
989,59480	1,42210	0,00000	
989,96998	1,42209	0,00000	
990,34517	1,42209	0,00000	
990,72036	1,42208	0,00000	
991,09555	1,42208	0,00000	
991,47074	1,42208	0,00000	
991,84592	1,42207	0,00000	
992,22111	1,42207	0,00000	
992,59630	1,42206	0,00000	
992,97149	1,42206	0,00000	
993,34667	1,42206	0,00000	
993,72186	1,42205	0,00000	
994,09705	1,42205	0,00000	
994,47224	1,42205	0,00000	
994,84742	1,42204	0,00000	
995,22261	1,42204	0,00000	
995,59780	1,42203	0,00000	
995,97299	1,42203	0,00000	
996,34817	1,42203	0,00000	
996,72336	1,42202	0,00000	
997,09855	1,42202	0,00000	
997,47374	1,42202	0,00000	
997,84892	1,42201	0,00000	
998,22411	1,42201	0,00000	
998,59930	1,42200	0,00000	
998,97449	1,42200	0,00000	
999,34967	1,42200	0,00000	
999,72486	1,42199	0,00000	
1000,10005	1,42199	0,00000	
1000,47524	1,42199	0,00000	
1000,85043	1,42198	0,00000	
1001,22561	1,42198	0,00000	
1001,60080	1,42197	0,00000	
1001,97599	1,42197	0,00000	
1002,35118	1,42197	0,00000	
1002,72636	1,42196	0,00000	
1003,10155	1,42196	0,00000	
1003,47674	1,42196	0,00000	
1003,85193	1,42195	0,00000	
1004,22711	1,42195	0,00000	
1004,60230	1,42194	0,00000	
1004,97749	1,42194	0,00000	
1005,35268	1,42194	0,00000	
1005,72786	1,42193	0,00000	
1006,10305	1,42193	0,00000	
1006,47824	1,42193	0,00000	
1006,85343	1,42192	0,00000	
1007,22861	1,42192	0,00000	
1007,60380	1,42191	0,00000	
1007,97899	1,42191	0,00000	
1008,35418	1,42191	0,00000	
1008,72936	1,42190	0,00000	
1009,10455	1,42190	0,00000	
1009,47974	1,42190	0,00000	
1009,85493	1,42189	0,00000	
1010,23012	1,42189	0,00000	
1010,60530	1,42189	0,00000	
1010,98049	1,42188	0,00000	
1011,35568	1,42188	0,00000	
1011,73087	1,42187	0,00000	
1012,10605	1,42187	0,00000	
1012,48124	1,42187	0,00000	
1012,85643	1,42186	0,00000	
1013,23162	1,42186	0,00000	
1013,60680	1,42186	0,00000	
1013,98199	1,42185	0,00000	
1014,35718	1,42185	0,00000	
1014,73237	1,42185	0,00000	
1015,10755	1,42184	0,00000	
1015,48274	1,42184	0,00000	
1015,85793	1,42184	0,00000	
1016,23312	1,42183	0,00000	
1016,60830	1,42183	0,00000	
1016,98349	1,42182	0,00000	
1017,35868	1,42182	0,00000	
1017,73387	1,42182	0,00000	
1018,10905	1,42181	0,00000	
1018,48424	1,42181	0,00000	
1018,85943	1,42181	0,00000	
1019,23462	1,42180	0,00000	
1019,60980	1,42180	0,00000	
1019,98499	1,42180	0,00000	
1020,36018	1,42179	0,00000	
1020,73537	1,42179	0,00000	
1021,11056	1,42179	0,00000	
1021,48574	1,42178	0,00000	
1021,86093	1,42178	0,00000	
1022,23612	1,42178	0,00000	
1022,61131	1,42177	0,00000	
1022,98649	1,42177	0,00000	
1023,36168	1,42176	0,00000	
1023,73687	1,42176	0,00000	
1024,11206	1,42176	0,00000	
1024,48724	1,42175	0,00000	
1024,86243	1,42175	0,00000	
1025,23762	1,42175	0,00000	
1025,61281	1,42174	0,00000	
1025,98799	1,42174	0,00000	
1026,36318	1,42174	0,00000	
1026,73837	1,42173	0,00000	
1027,11356	1,42173	0,00000	
1027,48874	1,42173	0,00000	
1027,86393	1,42172	0,00000	
1028,23912	1,42172	0,00000	
1028,61431	1,42172	0,00000	
1028,98949	1,42171	0,00000	
1029,36468	1,42171	0,00000	
1029,73987	1,42171	0,00000	
1030,11506	1,42170	0,00000	
1030,49025	1,42170	0,00000	
1030,86543	1,42170	0,00000	
1031,24062	1,42169	0,00000	
1031,61581	1,42169	0,00000	
1031,99100	1,42169	0,00000	
1032,36618	1,42168	0,00000	
1032,74137	1,42168	0,00000	
1033,11656	1,42168	0,00000	
1033,49175	1,42167	0,00000	
1033,86693	1,42167	0,00000	
1034,24212	1,42167	0,00000	
1034,61731	1,42166	0,00000	
1034,99250	1,42166	0,00000	
1035,36768	1,42165	0,00000	
1035,74287	1,42165	0,00000	
1036,11806	1,42165	0,00000	
1036,49325	1,42164	0,00000	
1036,86843	1,42164	0,00000	
1037,24362	1,42164	0,00000	
1037,61881	1,42163	0,00000	
1037,99400	1,42163	0,00000	
1038,36918	1,42163	0,00000	
1038,74437	1,42162	0,00000	
1039,11956	1,42162	0,00000	
1039,49475	1,42162	0,00000	
1039,86993	1,42161	0,00000	
1040,24512	1,42161	0,00000	
1040,62031	1,42161	0,00000	
1040,99550	1,42160	0,00000	
1041,37069	1,42160	0,00000	
1041,74587	1,42160	0,00000	
1042,12106	1,42159	0,00000	
1042,49625	1,42159	0,00000	
1042,87144	1,42159	0,00000	
1043,24662	1,42158	0,00000	
1043,62181	1,42158	0,00000	
1043,99700	1,42158	0,00000	
1044,37219	1,42157	0,00000	
1044,74737	1,42157	0,00000	
1045,12256	1,42157	0,00000	
1045,49775	1,42157	0,00000	
1045,87294	1,42156	0,00000	
1046,24812	1,42156	0,00000	
1046,62331	1,42156	0,00000	
1046,99850	1,42155	0,00000	
1047,37369	1,42155	0,00000	
1047,74887	1,42155	0,00000	
1048,12406	1,42154	0,00000	
1048,49925	1,42154	0,00000	
1048,87444	1,42154	0,00000	
1049,24962	1,42153	0,00000	
1049,62481	1,42153	0,00000	
1050,00000	1,42153	0,00000	
